image_file_path,face_top,face_bot,face_left,face_right,left_eye_x,left_eye_y,right_eye_x,right_eye_y,nose_x,nose_y,left_mouth_x,left_mouth_y,right_mouth_x,right_mouth_y
/nfs/isicvlnas01/users/yue_wu/task/pami_landmark/tweaked_landmark_predictor/scripts/../sample_data/obama-peru-1120.jpg,285,410,188,313,225.01,327.58,271.58,324.18,247.20,356.11,231.47,382.16,273.88,377.68
/nfs/isicvlnas01/users/yue_wu/task/pami_landmark/tweaked_landmark_predictor/scripts/../sample_data/obama-peru-1120.jpg,119,244,907,1032,944.58,155.25,996.43,154.89,970.32,183.22,946.88,210.20,993.66,209.57
/nfs/isicvlnas01/users/yue_wu/task/pami_landmark/tweaked_landmark_predictor/scripts/../sample_data/obama-peru-1120.jpg,327,451,631,755,671.93,361.12,723.60,358.44,693.28,388.63,678.57,417.50,722.64,415.70
/nfs/isicvlnas01/users/yue_wu/task/pami_landmark/tweaked_landmark_predictor/scripts/../sample_data/obama-peru-1120.jpg,192,295,99,203,129.06,219.30,173.15,219.89,146.19,249.29,130.83,270.69,169.91,270.89
/nfs/isicvlnas01/users/yue_wu/task/pami_landmark/tweaked_landmark_predictor/scripts/../sample_data/obama-peru-1120.jpg,76,180,503,606,529.25,105.95,576.43,109.60,548.29,138.95,523.68,151.52,577.31,155.30
/nfs/isicvlnas01/users/yue_wu/task/pami_landmark/tweaked_landmark_predictor/scripts/../sample_data/Trump-kids.jpg,132,311,809,988,889.00,202.00,932.83,202.93,934.65,227.87,896.07,267.19,928.85,270.32
/nfs/isicvlnas01/users/yue_wu/task/pami_landmark/tweaked_landmark_predictor/scripts/../sample_data/Trump-kids.jpg,87,302,158,373,236.90,174.39,296.56,154.74,295.26,204.46,262.86,257.36,307.70,241.05
/nfs/isicvlnas01/users/yue_wu/task/pami_landmark/tweaked_landmark_predictor/scripts/../sample_data/Trump-kids.jpg,188,313,631,755,667.79,227.90,710.46,221.62,712.68,251.67,681.65,289.95,715.47,284.14
/nfs/isicvlnas01/users/yue_wu/task/pami_landmark/tweaked_landmark_predictor/scripts/../sample_data/Trump-kids.jpg,132,311,371,550,437.35,205.18,483.68,204.16,493.85,233.03,458.50,277.52,491.99,275.92
/nfs/isicvlnas01/users/yue_wu/task/pami_landmark/tweaked_landmark_predictor/scripts/../sample_data/Zeng_Qinghong_0001.jpg,88,192,76,180,106.47,111.99,148.33,114.30,128.40,139.37,108.01,158.47,145.43,158.81
/nfs/isicvlnas01/users/yue_wu/task/pami_landmark/tweaked_landmark_predictor/scripts/../sample_data/Mickey_Gilley_0001.jpg,88,192,76,180,104.22,114.70,149.71,115.80,128.48,139.63,102.35,162.09,147.36,162.64
